{
    "swagger": "2.0",
    "info": {
        "description": "Código desafio para o inter",
        "version": "1.0.0",
        "title": "Inter Desafio API",
        "contact": {
            "name": "Icaro Noventa",
            "url": "https://www.linkedin.com/in/icaro-noventa-4480616a/",
            "email": "icaro.nove-nta@hotmail.com"
        },
        "license": {}
    },
    "host": "localhost:8080",
    "tags": [
        {
            "name": "digito-unico-controller",
            "description": "Digito Unico Controller"
        },
        {
            "name": "user-controller",
            "description": "User Controller"
        }
    ],
    "paths": {
        "/api/digito-unico/all": {
            "get": {
                "tags": [
                    "digito-unico-controller"
                ],
                "summary": "findAll",
                "operationId": "findAllUsingGET",
                "produces": [
                    "application/json"
                ],
                "responses": {
                    "200": {
                        "description": "OK",
                        "schema": {
                            "type": "array",
                            "items": {
                                "$ref": "#/definitions/DigitoUnico"
                            }
                        }
                    },
                    "401": {
                        "description": "Unauthorized"
                    },
                    "403": {
                        "description": "Forbidden"
                    },
                    "404": {
                        "description": "Not Found"
                    }
                }
            }
        },
        "/api/digito-unico/getByUser/{userId}": {
            "get": {
                "tags": [
                    "digito-unico-controller"
                ],
                "summary": "getByUserId",
                "operationId": "getByUserIdUsingGET",
                "produces": [
                    "application/json"
                ],
                "parameters": [
                    {
                        "name": "userId",
                        "in": "path",
                        "description": "userId",
                        "required": true,
                        "type": "integer",
                        "format": "int64"
                    }
                ],
                "responses": {
                    "200": {
                        "description": "OK",
                        "schema": {
                            "type": "array",
                            "items": {
                                "$ref": "#/definitions/DigitoUnico"
                            }
                        }
                    },
                    "401": {
                        "description": "Unauthorized"
                    },
                    "403": {
                        "description": "Forbidden"
                    },
                    "404": {
                        "description": "Not Found"
                    }
                }
            }
        },
        "/api/digito-unico/new/{userId}": {
            "post": {
                "tags": [
                    "digito-unico-controller"
                ],
                "summary": "create",
                "operationId": "createUsingPOST",
                "consumes": [
                    "application/json"
                ],
                "produces": [
                    "*/*"
                ],
                "parameters": [
                    {
                        "in": "body",
                        "name": "digitoUnico",
                        "description": "digitoUnico",
                        "required": true,
                        "schema": {
                            "$ref": "#/definitions/DigitoUnico"
                        }
                    },
                    {
                        "name": "userId",
                        "in": "path",
                        "description": "userId",
                        "required": true,
                        "type": "integer",
                        "format": "int64"
                    }
                ],
                "responses": {
                    "200": {
                        "description": "OK",
                        "schema": {
                            "type": "object"
                        }
                    },
                    "201": {
                        "description": "Created"
                    },
                    "401": {
                        "description": "Unauthorized"
                    },
                    "403": {
                        "description": "Forbidden"
                    },
                    "404": {
                        "description": "Not Found"
                    }
                }
            }
        },
        "/api/user/all": {
            "get": {
                "tags": [
                    "user-controller"
                ],
                "summary": "getAll",
                "operationId": "getAllUsingGET",
                "produces": [
                    "application/json"
                ],
                "responses": {
                    "200": {
                        "description": "OK",
                        "schema": {
                            "type": "array",
                            "items": {
                                "$ref": "#/definitions/User"
                            }
                        }
                    },
                    "401": {
                        "description": "Unauthorized"
                    },
                    "403": {
                        "description": "Forbidden"
                    },
                    "404": {
                        "description": "Not Found"
                    }
                }
            }
        },
        "/api/user/delete/{id}": {
            "delete": {
                "tags": [
                    "user-controller"
                ],
                "summary": "delete",
                "operationId": "deleteUsingDELETE",
                "produces": [
                    "*/*"
                ],
                "parameters": [
                    {
                        "name": "id",
                        "in": "path",
                        "description": "id",
                        "required": true,
                        "type": "integer",
                        "format": "int64"
                    }
                ],
                "responses": {
                    "200": {
                        "description": "OK",
                        "schema": {
                            "type": "string"
                        }
                    },
                    "204": {
                        "description": "No Content"
                    },
                    "401": {
                        "description": "Unauthorized"
                    },
                    "403": {
                        "description": "Forbidden"
                    }
                }
            }
        },
        "/api/user/edit/{id}": {
            "post": {
                "tags": [
                    "user-controller"
                ],
                "summary": "update",
                "operationId": "updateUsingPOST",
                "consumes": [
                    "application/json"
                ],
                "produces": [
                    "*/*"
                ],
                "parameters": [
                    {
                        "name": "id",
                        "in": "path",
                        "description": "id",
                        "required": true,
                        "type": "integer",
                        "format": "int64"
                    },
                    {
                        "in": "body",
                        "name": "user",
                        "description": "user",
                        "required": true,
                        "schema": {
                            "$ref": "#/definitions/User"
                        }
                    }
                ],
                "responses": {
                    "200": {
                        "description": "OK",
                        "schema": {
                            "type": "object"
                        }
                    },
                    "201": {
                        "description": "Created"
                    },
                    "401": {
                        "description": "Unauthorized"
                    },
                    "403": {
                        "description": "Forbidden"
                    },
                    "404": {
                        "description": "Not Found"
                    }
                }
            }
        },
        "/api/user/get/{id}": {
            "get": {
                "tags": [
                    "user-controller"
                ],
                "summary": "getById",
                "operationId": "getByIdUsingGET",
                "produces": [
                    "application/json"
                ],
                "parameters": [
                    {
                        "name": "id",
                        "in": "path",
                        "description": "id",
                        "required": true,
                        "type": "integer",
                        "format": "int64"
                    }
                ],
                "responses": {
                    "200": {
                        "description": "OK",
                        "schema": {
                            "$ref": "#/definitions/User"
                        }
                    },
                    "401": {
                        "description": "Unauthorized"
                    },
                    "403": {
                        "description": "Forbidden"
                    },
                    "404": {
                        "description": "Not Found"
                    }
                }
            }
        },
        "/api/user/new": {
            "post": {
                "tags": [
                    "user-controller"
                ],
                "summary": "create",
                "operationId": "createUsingPOST_1",
                "consumes": [
                    "application/json"
                ],
                "produces": [
                    "*/*"
                ],
                "parameters": [
                    {
                        "in": "body",
                        "name": "user",
                        "description": "user",
                        "required": true,
                        "schema": {
                            "$ref": "#/definitions/User"
                        }
                    }
                ],
                "responses": {
                    "200": {
                        "description": "OK",
                        "schema": {
                            "type": "object"
                        }
                    },
                    "201": {
                        "description": "Created"
                    },
                    "401": {
                        "description": "Unauthorized"
                    },
                    "403": {
                        "description": "Forbidden"
                    },
                    "404": {
                        "description": "Not Found"
                    }
                }
            }
        }
    },
    "definitions": {
        "DigitoUnico": {
            "type": "object",
            "properties": {
                "id": {
                    "type": "integer",
                    "format": "int64"
                },
                "k": {
                    "type": "integer",
                    "format": "int32"
                },
                "n": {
                    "type": "string"
                },
                "r": {
                    "type": "integer",
                    "format": "int32"
                },
                "user": {
                    "$ref": "#/definitions/User"
                }
            },
            "title": "DigitoUnico"
        },
        "User": {
            "type": "object",
            "properties": {
                "digitoUnicoList": {
                    "type": "array",
                    "items": {
                        "$ref": "#/definitions/DigitoUnico"
                    }
                },
                "email": {
                    "type": "string"
                },
                "id": {
                    "type": "integer",
                    "format": "int64"
                },
                "name": {
                    "type": "string"
                },
                "password": {
                    "type": "string"
                }
            },
            "title": "User"
        }
    }
}