/home/icaro/git/desafio-desenvolvedor-inter/src/main/java/com/inter/desafio/repository/UserRepository.java
/home/icaro/git/desafio-desenvolvedor-inter/src/main/java/com/inter/desafio/config/SpringFoxConfig.java
/home/icaro/git/desafio-desenvolvedor-inter/src/main/java/com/inter/desafio/model/DigitoUnico.java
/home/icaro/git/desafio-desenvolvedor-inter/src/main/java/com/inter/desafio/service/impl/UserServiceImpl.java
/home/icaro/git/desafio-desenvolvedor-inter/src/main/java/com/inter/desafio/DesafioApplication.java
/home/icaro/git/desafio-desenvolvedor-inter/src/main/java/com/inter/desafio/service/DigitoUnicoService.java
/home/icaro/git/desafio-desenvolvedor-inter/src/main/java/com/inter/desafio/service/impl/DigitoUnicoServiceImpl.java
/home/icaro/git/desafio-desenvolvedor-inter/src/main/java/com/inter/desafio/controller/UserController.java
/home/icaro/git/desafio-desenvolvedor-inter/src/main/java/com/inter/desafio/controller/DigitoUnicoController.java
/home/icaro/git/desafio-desenvolvedor-inter/src/main/java/com/inter/desafio/repository/DigitoUnicoRepository.java
/home/icaro/git/desafio-desenvolvedor-inter/src/main/java/com/inter/desafio/model/User.java
/home/icaro/git/desafio-desenvolvedor-inter/src/main/java/com/inter/desafio/utils/ResponseException.java
/home/icaro/git/desafio-desenvolvedor-inter/src/main/java/com/inter/desafio/service/UserService.java
